1	Lyon_/_Queen	(45.418873,-75.704824)	12	12
2	O'Connor_/_Queen	(45.421392,-75.698652)	6	11
4	Hormidas-Dupuis_/_Alexandre-Tache	(45.422551,-75.742055)	9	6
5	Booth_/_Vimy	(45.418129,-75.716226)	7	12
6	Elgin_/_Queen	(45.423561,-75.694668)	17	20
7	William_/_Rideau	(45.426475,-75.691356)	13	2
8	York_/_Dalhousie	(45.428997,-75.691066)	10	4
9	Murray_/_Mackenzie	(45.428457,-75.697136)	13	12
10	Laurier_/_Victoria	(45.428202,-75.710156)	13	6
11	Alexandre-Tache_/_Montcalm	(45.424629,-75.72314)	9	8
12	Elgin_/_Nepean	(45.419935,-75.691729)	7	12
13	Laurier/Sacre_Coeur	(45.43713,-75.70848)	7	8
14	St-Joseph/Caron	(45.44237,-75.73258)	6	9
15	Queen_Elizabeth_/_Pretoria	(45.410859,-75.684104)	9	16
16	Preston_/_Queen_Elizabeth	(45.396208,-75.706683)	25	6
17	Preston_/_Carling	(45.397591,-75.707632)	7	8
18	Wellington_/_Eddy	(45.426136,-75.720104)	9	6
20	Lucerne_/_Boudria	(45.420285,-75.74764)	9	10
21	James_/_Bank	(45.413208,-75.694731)	2	9
22	Metcalfe_/_Mcleod	(45.41297,-75.689169)	0	13
23	Elgin_/_Mcleod	(45.413848,-75.68717)	8	6
24	Allumettieres_/_Laurier	(45.432037,-75.709904)	6	17
26	Queen_Elizabeth_/_Somerset	(45.420277,-75.684855)	17	13
