(43.6419,-79.3672) (43.6562,-79.3919)
(43.6492,-79.4127) (43.6424,-79.4038)
(43.6363,-79.3996) (43.6597,-79.4141)
(43.6437,-79.3634) (43.6583,-79.3915)
(43.6367,-79.3681) (43.6378,-79.4175)
(43.6496,-79.3697) (43.6436,-79.4033)
(43.6526,-79.4053) (43.6616,-79.3644)
(43.6361,-79.4154) (43.6665,-79.3775)
(43.6710,-79.3626) (43.6706,-79.3858)
(43.6555,-79.4112) (43.6363,-79.4016)
